# Blender MTL File: 'TreeFree.blend'
# Material Count: 2

newmtl Material.001
Ns 0.000000
Ka 0.220588 0.220588 0.220588
Kd 0.056129 0.027657 0.013241
Ks 0.500000 0.500000 0.500000
Ke 0.000000 0.000000 0.000000
Ni 1.450000
d 1.000000
illum 3

newmtl Material.002
Ns 1.751733
Ka 0.500000 0.500000 0.500000
Kd 0.013702 0.057805 0.012983
Ks 0.500000 0.500000 0.500000
Ke 0.000000 0.000000 0.000000
Ni 1.450000
d 1.000000
illum 3
